{
  "transaction_details": [
    {
      "transaction_info": {
        "transaction_id": "794702034R094742N",
        "transaction_event_code": "T0001",
        "transaction_initiation_date": "2024-02-10T00:01:57+0000",
        "transaction_updated_date": "2024-02-10T00:01:57+0000",
        "transaction_amount": {
          "currency_code": "USD",
          "value": "-20.00"
        },
        "fee_amount": {
          "currency_code": "USD",
          "value": "-0.25"
        },
        "transaction_status": "P",
        "transaction_subject": "You have a payout!",
        "transaction_note": "Thanks for your support!",
        "ending_balance": {
          "currency_code": "USD",
          "value": "2047998.05"
        },
        "available_balance": {
          "currency_code": "USD",
          "value": "2047998.05"
        },
        "custom_field": "201403140002",
        "protection_eligibility": "02"
      },
      "payer_info": {
        "address_status": "N",
        "payer_name": {}
      },
      "shipping_info": {
        "name": "John, Merchant"
      },
      "cart_info": {},
      "store_info": {},
      "auction_info": {},
      "incentive_info": {}
    },
    {
      "transaction_info": {
        "transaction_id": "74734003LC191551G",
        "paypal_reference_id": "794702034R094742N",
        "paypal_reference_id_type": "TXN",
        "transaction_event_code": "T1105",
        "transaction_initiation_date": "2024-02-10T00:01:57+0000",
        "transaction_updated_date": "2024-02-10T00:01:57+0000",
        "transaction_amount": {
          "currency_code": "USD",
          "value": "20.25"
        },
        "transaction_status": "S",
        "transaction_subject": "You have a payout!",
        "transaction_note": "Thanks for your support!",
        "ending_balance": {
          "currency_code": "USD",
          "value": "2048018.30"
        },
        "available_balance": {
          "currency_code": "USD",
          "value": "2048018.30"
        },
        "protection_eligibility": "02"
      },
      "payer_info": {
        "address_status": "N",
        "payer_name": {}
      },
      "shipping_info": {},
      "cart_info": {},
      "store_info": {},
      "auction_info": {},
      "incentive_info": {}
    },
    {
      "transaction_info": {
        "paypal_account_id": "5DEJUG27PZB9J",
        "transaction_id": "44R34480PG8833736",
        "transaction_event_code": "T0001",
        "transaction_initiation_date": "2024-02-10T00:01:57+0000",
        "transaction_updated_date": "2024-02-10T00:01:57+0000",
        "transaction_amount": {
          "currency_code": "USD",
          "value": "-30.00"
        },
        "fee_amount": {
          "currency_code": "USD",
          "value": "-0.25"
        },
        "transaction_status": "S",
        "transaction_subject": "You have a payout!",
        "transaction_note": "Thanks for your patronage!",
        "ending_balance": {
          "currency_code": "USD",
          "value": "2047988.05"
        },
        "available_balance": {
          "currency_code": "USD",
          "value": "2047988.05"
        },
        "custom_field": "201403140003",
        "protection_eligibility": "02"
      },
      "payer_info": {
        "account_id": "5DEJUG27PZB9J",
        "email_address": "sb-59loi25655860@business.example.com",
        "address_status": "N",
        "payer_status": "N",
        "payer_name": {
          "alternate_full_name": "Test Store"
        },
        "country_code": "US"
      },
      "shipping_info": {
        "name": "John, Merchant"
      },
      "cart_info": {},
      "store_info": {},
      "auction_info": {},
      "incentive_info": {}
    }
  ],
  "account_number": "C7CYMKZDG8D6E",
  "start_date": "2024-02-10T00:00:00+0000",
  "end_date": "2024-02-10T05:20:00+0000",
  "last_refreshed_datetime": "2024-02-14T01:59:59+0000",
  "page": 2,
  "total_items": 352,
  "total_pages": 118,
  "links": [
    {
      "href": "https://api.sandbox.paypal.com/v1/reporting/transactions?fields=transaction_info%2Cpayer_info%2Cshipping_info%2Cauction_info%2Ccart_info%2Cincentive_info%2Cstore_info&start_date=2024-02-10T00%3A00%3A00Z&end_date=2024-02-10T05%3A20%3A00Z&page_size=3&page=1",
      "rel": "first",
      "method": "GET"
    },
    {
      "href": "https://api.sandbox.paypal.com/v1/reporting/transactions?fields=transaction_info%2Cpayer_info%2Cshipping_info%2Cauction_info%2Ccart_info%2Cincentive_info%2Cstore_info&start_date=2024-02-10T00%3A00%3A00Z&end_date=2024-02-10T05%3A20%3A00Z&page_size=3&page=118",
      "rel": "last",
      "method": "GET"
    },
    {
      "href": "https://api.sandbox.paypal.com/v1/reporting/transactions?fields=transaction_info%2Cpayer_info%2Cshipping_info%2Cauction_info%2Ccart_info%2Cincentive_info%2Cstore_info&start_date=2024-02-10T00%3A00%3A00Z&end_date=2024-02-10T05%3A20%3A00Z&page_size=3&page=3",
      "rel": "next",
      "method": "GET"
    },
    {
      "href": "https://api.sandbox.paypal.com/v1/reporting/transactions?fields=transaction_info%2Cpayer_info%2Cshipping_info%2Cauction_info%2Ccart_info%2Cincentive_info%2Cstore_info&start_date=2024-02-10T00%3A00%3A00Z&end_date=2024-02-10T05%3A20%3A00Z&page_size=3&page=1",
      "rel": "prev",
      "method": "GET"
    },
    {
      "href": "https://api.sandbox.paypal.com/v1/reporting/transactions?fields=transaction_info%2Cpayer_info%2Cshipping_info%2Cauction_info%2Ccart_info%2Cincentive_info%2Cstore_info&start_date=2024-02-10T00%3A00%3A00Z&end_date=2024-02-10T05%3A20%3A00Z&page_size=3&page=2",
      "rel": "self",
      "method": "GET"
    }
  ]
}
