{
  "transaction_details": [
    {
      "transaction_info": {
        "transaction_id": "2N603077GD600560F",
        "transaction_event_code": "T1503",
        "transaction_initiation_date": "2024-02-10T00:01:56+0000",
        "transaction_updated_date": "2024-02-10T00:01:56+0000",
        "transaction_amount": {
          "currency_code": "USD",
          "value": "-60.75"
        },
        "transaction_status": "S",
        "ending_balance": {
          "currency_code": "USD",
          "value": "2048018.30"
        },
        "available_balance": {
          "currency_code": "USD",
          "value": "2048018.30"
        },
        "protection_eligibility": "02"
      },
      "payer_info": {
        "address_status": "N",
        "payer_name": {}
      },
      "shipping_info": {},
      "cart_info": {},
      "store_info": {},
      "auction_info": {},
      "incentive_info": {}
    },
    {
      "transaction_info": {
        "transaction_id": "0JN65120FU073310V",
        "transaction_event_code": "T0001",
        "transaction_initiation_date": "2024-02-10T00:01:57+0000",
        "transaction_updated_date": "2024-02-10T00:01:57+0000",
        "transaction_amount": {
          "currency_code": "USD",
          "value": "-10.00"
        },
        "fee_amount": {
          "currency_code": "USD",
          "value": "-0.25"
        },
        "transaction_status": "P",
        "transaction_subject": "You have a payout!",
        "transaction_note": "Thanks for your patronage!",
        "ending_balance": {
          "currency_code": "USD",
          "value": "2048008.05"
        },
        "available_balance": {
          "currency_code": "USD",
          "value": "2048008.05"
        },
        "custom_field": "201403140001",
        "protection_eligibility": "02"
      },
      "payer_info": {
        "email_address": "Ernesto.Witting@yahoo.com",
        "address_status": "N",
        "payer_name": {}
      },
      "shipping_info": {
        "name": "John, Merchant"
      },
      "cart_info": {},
      "store_info": {},
      "auction_info": {},
      "incentive_info": {}
    },
    {
      "transaction_info": {
        "transaction_id": "4XL46752RR472362C",
        "paypal_reference_id": "0JN65120FU073310V",
        "paypal_reference_id_type": "TXN",
        "transaction_event_code": "T1105",
        "transaction_initiation_date": "2024-02-10T00:01:57+0000",
        "transaction_updated_date": "2024-02-10T00:01:57+0000",
        "transaction_amount": {
          "currency_code": "USD",
          "value": "10.25"
        },
        "transaction_status": "S",
        "transaction_subject": "You have a payout!",
        "transaction_note": "Thanks for your patronage!",
        "ending_balance": {
          "currency_code": "USD",
          "value": "2048018.30"
        },
        "available_balance": {
          "currency_code": "USD",
          "value": "2048018.30"
        },
        "protection_eligibility": "02"
      },
      "payer_info": {
        "address_status": "N",
        "payer_name": {}
      },
      "shipping_info": {},
      "cart_info": {},
      "store_info": {},
      "auction_info": {},
      "incentive_info": {}
    }
  ],
  "account_number": "C7CYMKZDG8D6E",
  "start_date": "2024-02-10T00:00:00+0000",
  "end_date": "2024-02-10T05:20:00+0000",
  "last_refreshed_datetime": "2024-02-14T01:59:59+0000",
  "page": 1,
  "total_items": 352,
  "total_pages": 118,
  "links": [
    {
      "href": "https://api.sandbox.paypal.com/v1/reporting/transactions?fields=transaction_info%2Cpayer_info%2Cshipping_info%2Cauction_info%2Ccart_info%2Cincentive_info%2Cstore_info&end_date=2024-02-10T05%3A20%3A00Z&start_date=2024-02-10T00%3A00%3A00Z&page_size=3&page=118",
      "rel": "last",
      "method": "GET"
    },
    {
      "href": "https://api.sandbox.paypal.com/v1/reporting/transactions?fields=transaction_info%2Cpayer_info%2Cshipping_info%2Cauction_info%2Ccart_info%2Cincentive_info%2Cstore_info&end_date=2024-02-10T05%3A20%3A00Z&start_date=2024-02-10T00%3A00%3A00Z&page_size=3&page=2",
      "rel": "next",
      "method": "GET"
    },
    {
      "href": "https://api.sandbox.paypal.com/v1/reporting/transactions?fields=transaction_info%2Cpayer_info%2Cshipping_info%2Cauction_info%2Ccart_info%2Cincentive_info%2Cstore_info&end_date=2024-02-10T05%3A20%3A00Z&start_date=2024-02-10T00%3A00%3A00Z&page_size=3&page=1",
      "rel": "self",
      "method": "GET"
    }
  ]
}
